{
  "label": "Preferencias",
  "desc": "Las cookies de preferencias permiten a la página web recordar información que cambia la forma en que la página se comporta o el aspecto que tiene, como su idioma preferido o la región en la que usted se encuentra."
}
